# Logfile created on 2021-11-09 23:08:49 +0100 by logger.rb/v1.4.2
  INFO ---------------------------------------------------------------------------
  INFO START 2021-11-09 23:08:49 +0100 cap production deploy
  INFO ---------------------------------------------------------------------------
  INFO [38e78f2d] Running /usr/bin/env mkdir -p /home1/pirranco/tmp as pirranco@pirranco.com
 DEBUG [38e78f2d] Command: /usr/bin/env mkdir -p /home1/pirranco/tmp
  INFO [38e78f2d] Finished in 2.240 seconds with exit status 0 (successful).
 DEBUG Uploading /home1/pirranco/tmp/git-ssh-e41638a32d42bca90b73.sh 0.0%
  INFO Uploading /home1/pirranco/tmp/git-ssh-e41638a32d42bca90b73.sh 100.0%
  INFO [1125cd26] Running /usr/bin/env chmod 700 /home1/pirranco/tmp/git-ssh-e41638a32d42bca90b73.sh as pirranco@pirranco.com
 DEBUG [1125cd26] Command: /usr/bin/env chmod 700 /home1/pirranco/tmp/git-ssh-e41638a32d42bca90b73.sh
  INFO [1125cd26] Finished in 0.512 seconds with exit status 0 (successful).
  INFO [cbf91815] Running /usr/bin/env git ls-remote https://leroj7:chickinm7@bitbucket.org/leroj7/gestionam.git HEAD as pirranco@pirranco.com
 DEBUG [cbf91815] Command: ( export GIT_ASKPASS="/bin/echo" GIT_SSH="/home1/pirranco/tmp/git-ssh-e41638a32d42bca90b73.sh" ; /usr/bin/env git ls-remote https://leroj7:chickinm7@bitbucket.org/leroj7/gestionam.git HEAD )
 DEBUG [cbf91815] 	9a046dc3d92e592d71ac3fe9ec136db2fb95e4bf	HEAD
  INFO [cbf91815] Finished in 0.974 seconds with exit status 0 (successful).
  INFO [337e7398] Running /usr/bin/env mkdir -p /home1/pirranco/webs/gestionam.ehhh.es/shared /home1/pirranco/webs/gestionam.ehhh.es/releases as pirranco@pirranco.com
 DEBUG [337e7398] Command: /usr/bin/env mkdir -p /home1/pirranco/webs/gestionam.ehhh.es/shared /home1/pirranco/webs/gestionam.ehhh.es/releases
  INFO [337e7398] Finished in 0.681 seconds with exit status 0 (successful).
 DEBUG [2e14dea6] Running [ -f /home1/pirranco/webs/gestionam.ehhh.es/current/REVISION ] as pirranco@pirranco.com
 DEBUG [2e14dea6] Command: [ -f /home1/pirranco/webs/gestionam.ehhh.es/current/REVISION ]
 DEBUG [2e14dea6] Finished in 0.603 seconds with exit status 1 (failed).
 DEBUG [84fc98a5] Running [ -f /home1/pirranco/webs/gestionam.ehhh.es/repo/HEAD ] as pirranco@pirranco.com
 DEBUG [84fc98a5] Command: [ -f /home1/pirranco/webs/gestionam.ehhh.es/repo/HEAD ]
 DEBUG [84fc98a5] Finished in 0.637 seconds with exit status 1 (failed).
 DEBUG [6c2a2485] Running if test ! -d /home1/pirranco/webs/gestionam.ehhh.es; then echo "Directory does not exist '/home1/pirranco/webs/gestionam.ehhh.es'" 1>&2; false; fi as pirranco@pirranco.com
 DEBUG [6c2a2485] Command: if test ! -d /home1/pirranco/webs/gestionam.ehhh.es; then echo "Directory does not exist '/home1/pirranco/webs/gestionam.ehhh.es'" 1>&2; false; fi
 DEBUG [6c2a2485] Finished in 0.638 seconds with exit status 0 (successful).
  INFO [7a033276] Running /usr/bin/env git clone --mirror https://leroj7:chickinm7@bitbucket.org/leroj7/gestionam.git /home1/pirranco/webs/gestionam.ehhh.es/repo as pirranco@pirranco.com
 DEBUG [7a033276] Command: cd /home1/pirranco/webs/gestionam.ehhh.es && ( export GIT_ASKPASS="/bin/echo" GIT_SSH="/home1/pirranco/tmp/git-ssh-e41638a32d42bca90b73.sh" ; /usr/bin/env git clone --mirror https://leroj7:chickinm7@bitbucket.org/leroj7/gestionam.git /home1/pirranco/webs/gestionam.ehhh.es/repo )
 DEBUG [7a033276] 	Cloning into bare repository '/home1/pirranco/webs/gestionam.ehhh.es/repo'...
 DEBUG [7a033276] 	remote: Enumerating objects: 13328, done.[K
 DEBUG [7a033276] 	remote: Counting objects:   0% (1/13328)[Kremote: Counting objects:   1% (134/13328)[Kremote: Counting objects:   2% (267/13328)[Kremote: Counting objects:   3% (400/13328)[K
 DEBUG [7a033276] 	remote: Counting objects:   4% (534/13328)[Kremote: Counting objects:   5% (667/13328)[Kremote: Counting objects:   6% (800/13328)[Kremote: Counting objects:   7% (933/13328)[K
 DEBUG [7a033276] 	remote: Counting objects:   8% (1067/13328)[Kremote: Counting objects:   9% (1200/13328)[Kremote: Counting objects:  10% (1333/13328)[Kremote: Counting objects:  11% (1467/13328)[K
 DEBUG [7a033276] 	remote: Counting objects:  12% (1600/13328)[K
 DEBUG [7a033276] 	remote: Counting objects:  13% (1733/13328)[Kremote: Counting objects:  14% (1866/13328)[K
 DEBUG [7a033276] 	remote: Counting objects:  15% (2000/13328)[K
 DEBUG [7a033276] 	remote: Counting objects:  16% (2133/13328)[K
 DEBUG [7a033276] 	remote: Counting objects:  17% (2266/13328)[Kremote: Counting objects:  18% (2400/13328)[Kremote: Counting objects:  19% (2533/13328)[K
 DEBUG [7a033276] 	remote: Counting objects:  20% (2666/13328)[K
 DEBUG [7a033276] 	remote: Counting objects:  21% (2799/13328)[Kremote: Counting objects:  22% (2933/13328)[Kremote: Counting objects:  23% (3066/13328)[K
 DEBUG [7a033276] 	remote: Counting objects:  24% (3199/13328)[Kremote: Counting objects:  25% (3332/13328)[Kremote: Counting objects:  26% (3466/13328)[Kremote: Counting objects:  27% (3599/13328)[K
 DEBUG [7a033276] 	remote: Counting objects:  28% (3732/13328)[K
 DEBUG [7a033276] 	remote: Counting objects:  29% (3866/13328)[Kremote: Counting objects:  30% (3999/13328)[K
 DEBUG [7a033276] 	remote: Counting objects:  31% (4132/13328)[Kremote: Counting objects:  32% (4265/13328)[Kremote: Counting objects:  33% (4399/13328)[Kremote: Counting objects:  34% (4532/13328)[K
 DEBUG [7a033276] 	remote: Counting objects:  35% (4665/13328)[Kremote: Counting objects:  36% (4799/13328)[Kremote: Counting objects:  37% (4932/13328)[Kremote: Counting objects:  38% (5065/13328)[Kremote: Counting objects:  39% (5198/13328)[Kremote: Counting objects:  40% (5332/13328)[Kremote: Counting objects:  41% (5465/13328)[Kremote: Counting objects:  42% (5598/13328)[Kremote: Counting objects:  43% (5732/13328)[Kremote: Counting objects:  44% (5865/13328)[Kremote: Counting objects:  45% (5998/13328)[Kremote: Counting objects:  46% (6131/13328)[Kremote: Counting objects:  47% (6265/13328)[Kremote: Counting objects:  48% (6398/13328)[Kremote: Counting objects:  49% (6531/13328)[Kremote: Counting objects:  50% (6664/13328)[Kremote: Counting objects:  51% (6798/13328)[Kremote: Counting objects:  52% (6931/13328)[Kremote: Counting objects:  53% (7064/13328)[Kremote: Counting objects:  54% (7198/13328)[K
 DEBUG [7a033276] 	remote: Counting objects:  55% (7331/13328)[Kremote: Counting objects:  56% (7464/13328)[Kremote: Counting objects:  57% (7597/13328)[Kremote: Counting objects:  58% (7731/13328)[Kremote: Counting objects:  59% (7864/13328)[Kremote: Counting objects:  60% (7997/13328)[Kremote: Counting objects:  61% (8131/13328)[Kremote: Counting objects:  62% (8264/13328)[Kremote: Counting objects:  63% (8397/13328)[Kremote: Counting objects:  64% (8530/13328)[Kremote: Counting objects:  65% (8664/13328)[K
 DEBUG [7a033276] 	remote: Counting objects:  66% (8797/13328)[Kremote: Counting objects:  67% (8930/13328)[Kremote: Counting objects:  68% (9064/13328)[Kremote: Counting objects:  69% (9197/13328)[Kremote: Counting objects:  70% (9330/13328)[Kremote: Counting objects:  71% (9463/13328)[Kremote: Counting objects:  72% (9597/13328)[Kremote: Counting objects:  73% (9730/13328)[Kremote: Counting objects:  74% (9863/13328)[Kremote: Counting objects:  75% (9996/13328)[Kremote: Counting objects:  76% (10130/13328)[Kremote: Counting objects:  77% (10263/13328)[Kremote: Counting objects:  78% (10396/13328)[Kremote: Counting objects:  79% (10530/13328)[Kremote: Counting objects:  80% (10663/13328)[Kremote: Counting objects:  81% (10796/13328)[Kremote: Counting objects:  82% (10929/13328)[K
 DEBUG [7a033276] 	remote: Counting objects:  83% (11063/13328)[Kremote: Counting objects:  84% (11196/13328)[K
 DEBUG [7a033276] 	remote: Counting objects:  85% (11329/13328)[Kremote: Counting objects:  86% (11463/13328)[K
 DEBUG [7a033276] 	remote: Counting objects:  87% (11596/13328)[K
 DEBUG [7a033276] 	remote: Counting objects:  88% (11729/13328)[K
 DEBUG [7a033276] 	remote: Counting objects:  89% (11862/13328)[Kremote: Counting objects:  90% (11996/13328)[K
 DEBUG [7a033276] 	remote: Counting objects:  91% (12129/13328)[Kremote: Counting objects:  92% (12262/13328)[Kremote: Counting objects:  93% (12396/13328)[K
 DEBUG [7a033276] 	remote: Counting objects:  94% (12529/13328)[Kremote: Counting objects:  95% (12662/13328)[Kremote: Counting objects:  96% (12795/13328)[Kremote: Counting objects:  97% (12929/13328)[Kremote: Counting objects:  98% (13062/13328)[Kremote: Counting objects:  99% (13195/13328)[K
 DEBUG [7a033276] 	remote: Counting objects: 100% (13328/13328)[Kremote: Counting objects: 100% (13328/13328), done.[K
 DEBUG [7a033276] 	remote: Compressing objects:   0% (1/10294)[Kremote: Compressing objects:   1% (103/10294)[Kremote: Compressing objects:   2% (206/10294)[K
 DEBUG [7a033276] 	remote: Compressing objects:   3% (309/10294)[Kremote: Compressing objects:   4% (412/10294)[Kremote: Compressing objects:   5% (515/10294)[K
 DEBUG [7a033276] 	remote: Compressing objects:   6% (618/10294)[K
 DEBUG [7a033276] 	remote: Compressing objects:   7% (721/10294)[K
 DEBUG [7a033276] 	remote: Compressing objects:   8% (824/10294)[K
 DEBUG [7a033276] 	remote: Compressing objects:   9% (927/10294)[Kremote: Compressing objects:  10% (1030/10294)[Kremote: Compressing objects:  11% (1133/10294)[K
 DEBUG [7a033276] 	remote: Compressing objects:  12% (1236/10294)[K
 DEBUG [7a033276] 	remote: Compressing objects:  13% (1339/10294)[K
 DEBUG [7a033276] 	remote: Compressing objects:  14% (1442/10294)[K
 DEBUG [7a033276] 	remote: Compressing objects:  15% (1545/10294)[K
 DEBUG [7a033276] 	remote: Compressing objects:  16% (1648/10294)[K
 DEBUG [7a033276] 	remote: Compressing objects:  17% (1750/10294)[Kremote: Compressing objects:  18% (1853/10294)[Kremote: Compressing objects:  19% (1956/10294)[K
 DEBUG [7a033276] 	remote: Compressing objects:  20% (2059/10294)[K
 DEBUG [7a033276] 	remote: Compressing objects:  21% (2162/10294)[K
 DEBUG [7a033276] 	remote: Compressing objects:  22% (2265/10294)[K
 DEBUG [7a033276] 	remote: Compressing objects:  23% (2368/10294)[Kremote: Compressing objects:  24% (2471/10294)[K
 DEBUG [7a033276] 	remote: Compressing objects:  25% (2574/10294)[Kremote: Compressing objects:  26% (2677/10294)[K
 DEBUG [7a033276] 	remote: Compressing objects:  27% (2780/10294)[K
 DEBUG [7a033276] 	remote: Compressing objects:  28% (2883/10294)[K
 DEBUG [7a033276] 	remote: Compressing objects:  29% (2986/10294)[Kremote: Compressing objects:  30% (3089/10294)[K
 DEBUG [7a033276] 	remote: Compressing objects:  31% (3192/10294)[Kremote: Compressing objects:  32% (3295/10294)[Kremote: Compressing objects:  33% (3398/10294)[K
 DEBUG [7a033276] 	remote: Compressing objects:  34% (3500/10294)[Kremote: Compressing objects:  35% (3603/10294)[K
 DEBUG [7a033276] 	remote: Compressing objects:  36% (3706/10294)[Kremote: Compressing objects:  37% (3809/10294)[Kremote: Compressing objects:  38% (3912/10294)[Kremote: Compressing objects:  39% (4015/10294)[K
 DEBUG [7a033276] 	remote: Compressing objects:  40% (4118/10294)[Kremote: Compressing objects:  41% (4221/10294)[K
 DEBUG [7a033276] 	remote: Compressing objects:  42% (4324/10294)[Kremote: Compressing objects:  43% (4427/10294)[K
 DEBUG [7a033276] 	remote: Compressing objects:  44% (4530/10294)[K
 DEBUG [7a033276] 	remote: Compressing objects:  45% (4633/10294)[Kremote: Compressing objects:  46% (4736/10294)[K
 DEBUG [7a033276] 	remote: Compressing objects:  47% (4839/10294)[Kremote: Compressing objects:  48% (4942/10294)[K
 DEBUG [7a033276] 	remote: Compressing objects:  49% (5045/10294)[Kremote: Compressing objects:  50% (5147/10294)[K
 DEBUG [7a033276] 	remote: Compressing objects:  51% (5250/10294)[Kremote: Compressing objects:  52% (5353/10294)[K
 DEBUG [7a033276] 	remote: Compressing objects:  53% (5456/10294)[Kremote: Compressing objects:  54% (5559/10294)[Kremote: Compressing objects:  55% (5662/10294)[K
 DEBUG [7a033276] 	remote: Compressing objects:  56% (5765/10294)[K
 DEBUG [7a033276] 	remote: Compressing objects:  57% (5868/10294)[K
 DEBUG [7a033276] 	remote: Compressing objects:  58% (5971/10294)[K
 DEBUG [7a033276] 	remote: Compressing objects:  59% (6074/10294)[Kremote: Compressing objects:  60% (6177/10294)[K
 DEBUG [7a033276] 	remote: Compressing objects:  61% (6280/10294)[K
 DEBUG [7a033276] 	remote: Compressing objects:  62% (6383/10294)[K
 DEBUG [7a033276] 	remote: Compressing objects:  63% (6486/10294)[K
 DEBUG [7a033276] 	remote: Compressing objects:  64% (6589/10294)[K
 DEBUG [7a033276] 	remote: Compressing objects:  65% (6692/10294)[K
 DEBUG [7a033276] 	remote: Compressing objects:  66% (6795/10294)[K
 DEBUG [7a033276] 	remote: Compressing objects:  67% (6897/10294)[K
 DEBUG [7a033276] 	remote: Compressing objects:  68% (7000/10294)[K
 DEBUG [7a033276] 	remote: Compressing objects:  69% (7103/10294)[K
 DEBUG [7a033276] 	remote: Compressing objects:  70% (7206/10294)[K
 DEBUG [7a033276] 	remote: Compressing objects:  71% (7309/10294)[K
 DEBUG [7a033276] 	remote: Compressing objects:  72% (7412/10294)[Kremote: Compressing objects:  73% (7515/10294)[K
 DEBUG [7a033276] 	remote: Compressing objects:  74% (7618/10294)[Kremote: Compressing objects:  75% (7721/10294)[Kremote: Compressing objects:  76% (7824/10294)[K
 DEBUG [7a033276] 	remote: Compressing objects:  77% (7927/10294)[Kremote: Compressing objects:  78% (8030/10294)[K
 DEBUG [7a033276] 	remote: Compressing objects:  79% (8133/10294)[Kremote: Compressing objects:  80% (8236/10294)[K
 DEBUG [7a033276] 	remote: Compressing objects:  81% (8339/10294)[Kremote: Compressing objects:  82% (8442/10294)[K
 DEBUG [7a033276] 	remote: Compressing objects:  83% (8545/10294)[Kremote: Compressing objects:  84% (8647/10294)[K
 DEBUG [7a033276] 	remote: Compressing objects:  85% (8750/10294)[Kremote: Compressing objects:  86% (8853/10294)[K
 DEBUG [7a033276] 	remote: Compressing objects:  87% (8956/10294)[K
 DEBUG [7a033276] 	remote: Compressing objects:  88% (9059/10294)[Kremote: Compressing objects:  89% (9162/10294)[K
 DEBUG [7a033276] 	remote: Compressing objects:  90% (9265/10294)[Kremote: Compressing objects:  91% (9368/10294)[K
 DEBUG [7a033276] 	remote: Compressing objects:  92% (9471/10294)[Kremote: Compressing objects:  93% (9574/10294)[K
 DEBUG [7a033276] 	remote: Compressing objects:  94% (9677/10294)[Kremote: Compressing objects:  95% (9780/10294)[K
 DEBUG [7a033276] 	remote: Compressing objects:  96% (9883/10294)[Kremote: Compressing objects:  97% (9986/10294)[K
 DEBUG [7a033276] 	remote: Compressing objects:  98% (10089/10294)[K
 DEBUG [7a033276] 	remote: Compressing objects:  99% (10192/10294)[Kremote: Compressing objects: 100% (10294/10294)[K
 DEBUG [7a033276] 	remote: Compressing objects: 100% (10294/10294), done.[K
 DEBUG [7a033276] 	Receiving objects:   0% (1/13328)   
 DEBUG [7a033276] 	Receiving objects:   1% (134/13328)   
 DEBUG [7a033276] 	Receiving objects:   2% (267/13328)   
 DEBUG [7a033276] 	Receiving objects:   3% (400/13328)   
 DEBUG [7a033276] 	Receiving objects:   4% (534/13328)   
 DEBUG [7a033276] 	Receiving objects:   5% (667/13328)   
 DEBUG [7a033276] 	Receiving objects:   6% (800/13328)   
 DEBUG [7a033276] 	Receiving objects:   7% (933/13328)   
 DEBUG [7a033276] 	Receiving objects:   8% (1067/13328)   
 DEBUG [7a033276] 	Receiving objects:   9% (1200/13328)   
 DEBUG [7a033276] 	Receiving objects:  10% (1333/13328)   
 DEBUG [7a033276] 	Receiving objects:  11% (1467/13328)   
 DEBUG [7a033276] 	Receiving objects:  12% (1600/13328)   
 DEBUG [7a033276] 	Receiving objects:  13% (1733/13328)   
 DEBUG [7a033276] 	Receiving objects:  14% (1866/13328)   
 DEBUG [7a033276] 	Receiving objects:  15% (2000/13328)   
 DEBUG [7a033276] 	Receiving objects:  16% (2133/13328)   
 DEBUG [7a033276] 	Receiving objects:  17% (2266/13328)   
 DEBUG [7a033276] 	Receiving objects:  18% (2400/13328)   
 DEBUG [7a033276] 	Receiving objects:  19% (2533/13328)   
 DEBUG [7a033276] 	Receiving objects:  20% (2666/13328)   
 DEBUG [7a033276] 	Receiving objects:  21% (2799/13328)   
 DEBUG [7a033276] 	Receiving objects:  22% (2933/13328)   
 DEBUG [7a033276] 	Receiving objects:  23% (3066/13328)   
 DEBUG [7a033276] 	Receiving objects:  24% (3199/13328)   
 DEBUG [7a033276] 	Receiving objects:  25% (3332/13328)   
 DEBUG [7a033276] 	Receiving objects:  26% (3466/13328)   
 DEBUG [7a033276] 	Receiving objects:  27% (3599/13328)   
 DEBUG [7a033276] 	Receiving objects:  28% (3732/13328)   
 DEBUG [7a033276] 	Receiving objects:  29% (3866/13328)   
 DEBUG [7a033276] 	Receiving objects:  30% (3999/13328)   
 DEBUG [7a033276] 	Receiving objects:  31% (4132/13328)   
 DEBUG [7a033276] 	Receiving objects:  32% (4265/13328)   
 DEBUG [7a033276] 	Receiving objects:  33% (4399/13328)   
 DEBUG [7a033276] 	Receiving objects:  34% (4532/13328)   
 DEBUG [7a033276] 	Receiving objects:  35% (4665/13328)   
 DEBUG [7a033276] 	Receiving objects:  36% (4799/13328)   
 DEBUG [7a033276] 	Receiving objects:  37% (4932/13328)   
 DEBUG [7a033276] 	Receiving objects:  38% (5065/13328)   
 DEBUG [7a033276] 	Receiving objects:  39% (5198/13328)   
 DEBUG [7a033276] 	Receiving objects:  40% (5332/13328)   
 DEBUG [7a033276] 	Receiving objects:  41% (5465/13328)   
 DEBUG [7a033276] 	Receiving objects:  42% (5598/13328)   
 DEBUG [7a033276] 	Receiving objects:  43% (5732/13328)   
 DEBUG [7a033276] 	Receiving objects:  44% (5865/13328)   
 DEBUG [7a033276] 	Receiving objects:  45% (5998/13328)   
 DEBUG [7a033276] 	Receiving objects:  46% (6131/13328)   
 DEBUG [7a033276] 	Receiving objects:  47% (6265/13328)   
 DEBUG [7a033276] 	Receiving objects:  48% (6398/13328)   
 DEBUG [7a033276] 	Receiving objects:  49% (6531/13328)   
 DEBUG [7a033276] 	Receiving objects:  50% (6664/13328)   
 DEBUG [7a033276] 	Receiving objects:  51% (6798/13328)   
 DEBUG [7a033276] 	Receiving objects:  52% (6931/13328)   
 DEBUG [7a033276] 	Receiving objects:  53% (7064/13328)   
 DEBUG [7a033276] 	Receiving objects:  54% (7198/13328)   
 DEBUG [7a033276] 	Receiving objects:  55% (7331/13328)   
 DEBUG [7a033276] 	Receiving objects:  56% (7464/13328)   
 DEBUG [7a033276] 	Receiving objects:  57% (7597/13328)   
 DEBUG [7a033276] 	Receiving objects:  58% (7731/13328)   
 DEBUG [7a033276] 	Receiving objects:  59% (7864/13328)   
 DEBUG [7a033276] 	Receiving objects:  60% (7997/13328)   
 DEBUG [7a033276] 	Receiving objects:  61% (8131/13328)   
 DEBUG [7a033276] 	Receiving objects:  62% (8264/13328)   
 DEBUG [7a033276] 	Receiving objects:  63% (8397/13328)   
 DEBUG [7a033276] 	Receiving objects:  64% (8530/13328)   
 DEBUG [7a033276] 	Receiving objects:  65% (8664/13328)   
 DEBUG [7a033276] 	Receiving objects:  66% (8797/13328)   
 DEBUG [7a033276] 	Receiving objects:  67% (8930/13328)   
 DEBUG [7a033276] 	Receiving objects:  68% (9064/13328)   
 DEBUG [7a033276] 	Receiving objects:  69% (9197/13328), 10.34 MiB | 20.62 MiB/s   
 DEBUG [7a033276] 	Receiving objects:  70% (9330/13328), 10.34 MiB | 20.62 MiB/s   
 DEBUG [7a033276] 	Receiving objects:  71% (9463/13328), 10.34 MiB | 20.62 MiB/s   
 DEBUG [7a033276] 	Receiving objects:  72% (9597/13328), 10.34 MiB | 20.62 MiB/s   
 DEBUG [7a033276] 	Receiving objects:  73% (9730/13328), 10.34 MiB | 20.62 MiB/s   
 DEBUG [7a033276] 	Receiving objects:  74% (9863/13328), 10.34 MiB | 20.62 MiB/s   
 DEBUG [7a033276] 	Receiving objects:  75% (9996/13328), 10.34 MiB | 20.62 MiB/s   
 DEBUG [7a033276] 	Receiving objects:  76% (10130/13328), 10.34 MiB | 20.62 MiB/s   
 DEBUG [7a033276] 	Receiving objects:  77% (10263/13328), 10.34 MiB | 20.62 MiB/s   
 DEBUG [7a033276] 	Receiving objects:  78% (10396/13328), 10.34 MiB | 20.62 MiB/s   
 DEBUG [7a033276] 	Receiving objects:  79% (10530/13328), 10.34 MiB | 20.62 MiB/s   
 DEBUG [7a033276] 	Receiving objects:  80% (10663/13328), 10.34 MiB | 20.62 MiB/s   
 DEBUG [7a033276] 	Receiving objects:  81% (10796/13328), 10.34 MiB | 20.62 MiB/s   
 DEBUG [7a033276] 	Receiving objects:  82% (10929/13328), 10.34 MiB | 20.62 MiB/s   
 DEBUG [7a033276] 	Receiving objects:  83% (11063/13328), 10.34 MiB | 20.62 MiB/s   
 DEBUG [7a033276] 	Receiving objects:  84% (11196/13328), 10.34 MiB | 20.62 MiB/s   
 DEBUG [7a033276] 	Receiving objects:  85% (11329/13328), 10.34 MiB | 20.62 MiB/s   
 DEBUG [7a033276] 	Receiving objects:  86% (11463/13328), 10.34 MiB | 20.62 MiB/s   
 DEBUG [7a033276] 	Receiving objects:  87% (11596/13328), 10.34 MiB | 20.62 MiB/s   
 DEBUG [7a033276] 	Receiving objects:  88% (11729/13328), 10.34 MiB | 20.62 MiB/s   
 DEBUG [7a033276] 	Receiving objects:  89% (11862/13328), 10.34 MiB | 20.62 MiB/s   
 DEBUG [7a033276] 	Receiving objects:  90% (11996/13328), 10.34 MiB | 20.62 MiB/s   
 DEBUG [7a033276] 	Receiving objects:  91% (12129/13328), 10.34 MiB | 20.62 MiB/s   
 DEBUG [7a033276] 	Receiving objects:  92% (12262/13328), 10.34 MiB | 20.62 MiB/s   
 DEBUG [7a033276] 	Receiving objects:  93% (12396/13328), 10.34 MiB | 20.62 MiB/s   
 DEBUG [7a033276] 	Receiving objects:  94% (12529/13328), 10.34 MiB | 20.62 MiB/s   
 DEBUG [7a033276] 	Receiving objects:  95% (12662/13328), 10.34 MiB | 20.62 MiB/s   
 DEBUG [7a033276] 	Receiving objects:  96% (12795/13328), 10.34 MiB | 20.62 MiB/s   
 DEBUG [7a033276] 	Receiving objects:  97% (12929/13328), 10.34 MiB | 20.62 MiB/s   
 DEBUG [7a033276] 	Receiving objects:  98% (13062/13328), 10.34 MiB | 20.62 MiB/s   
 DEBUG [7a033276] 	Receiving objects:  99% (13195/13328), 10.34 MiB | 20.62 MiB/s   
 DEBUG [7a033276] 	remote: Total 13328 (delta 2428), reused 13328 (delta 2428), pack-reused 0[K
 DEBUG [7a033276] 	Receiving objects: 100% (13328/13328), 10.34 MiB | 20.62 MiB/s   Receiving objects: 100% (13328/13328), 27.87 MiB | 20.62 MiB/s, done.
 DEBUG [7a033276] 	Resolving deltas:   0% (0/2428)   
 DEBUG [7a033276] 	Resolving deltas:   1% (48/2428)   
 DEBUG [7a033276] 	Resolving deltas:   3% (83/2428)   
 DEBUG [7a033276] 	Resolving deltas:   4% (98/2428)   
 DEBUG [7a033276] 	Resolving deltas:   5% (124/2428)   
 DEBUG [7a033276] 	Resolving deltas:   6% (151/2428)   
 DEBUG [7a033276] 	Resolving deltas:   7% (179/2428)   
 DEBUG [7a033276] 	Resolving deltas:   8% (197/2428)   
 DEBUG [7a033276] 	Resolving deltas:  13% (334/2428)   Resolving deltas:  14% (341/2428)   Resolving deltas:  15% (365/2428)   
 DEBUG [7a033276] 	Resolving deltas:  16% (390/2428)   
 DEBUG [7a033276] 	Resolving deltas:  17% (413/2428)   
 DEBUG [7a033276] 	Resolving deltas:  18% (438/2428)   
 DEBUG [7a033276] 	Resolving deltas:  19% (462/2428)   
 DEBUG [7a033276] 	Resolving deltas:  20% (486/2428)   
 DEBUG [7a033276] 	Resolving deltas:  21% (510/2428)   
 DEBUG [7a033276] 	Resolving deltas:  22% (535/2428)   
 DEBUG [7a033276] 	Resolving deltas:  25% (615/2428)   
 DEBUG [7a033276] 	Resolving deltas:  26% (633/2428)   
 DEBUG [7a033276] 	Resolving deltas:  27% (665/2428)   
 DEBUG [7a033276] 	Resolving deltas:  28% (680/2428)   Resolving deltas:  29% (705/2428)   
 DEBUG [7a033276] 	Resolving deltas:  30% (729/2428)   
 DEBUG [7a033276] 	Resolving deltas:  31% (764/2428)   Resolving deltas:  32% (781/2428)   
 DEBUG [7a033276] 	Resolving deltas:  33% (802/2428)   
 DEBUG [7a033276] 	Resolving deltas:  34% (826/2428)   Resolving deltas:  35% (853/2428)   Resolving deltas:  36% (876/2428)   
 DEBUG [7a033276] 	Resolving deltas:  37% (899/2428)   
 DEBUG [7a033276] 	Resolving deltas:  38% (923/2428)   
 DEBUG [7a033276] 	Resolving deltas:  39% (947/2428)   
 DEBUG [7a033276] 	Resolving deltas:  40% (972/2428)   
 DEBUG [7a033276] 	Resolving deltas:  41% (1010/2428)   
 DEBUG [7a033276] 	Resolving deltas:  42% (1021/2428)   
 DEBUG [7a033276] 	Resolving deltas:  43% (1050/2428)   
 DEBUG [7a033276] 	Resolving deltas:  44% (1071/2428)   
 DEBUG [7a033276] 	Resolving deltas:  45% (1095/2428)   
 DEBUG [7a033276] 	Resolving deltas:  46% (1118/2428)   
 DEBUG [7a033276] 	Resolving deltas:  47% (1146/2428)   
 DEBUG [7a033276] 	Resolving deltas:  48% (1166/2428)   
 DEBUG [7a033276] 	Resolving deltas:  49% (1190/2428)   
 DEBUG [7a033276] 	Resolving deltas:  50% (1214/2428)   
 DEBUG [7a033276] 	Resolving deltas:  51% (1242/2428)   
 DEBUG [7a033276] 	Resolving deltas:  52% (1263/2428)   
 DEBUG [7a033276] 	Resolving deltas:  53% (1287/2428)   
 DEBUG [7a033276] 	Resolving deltas:  54% (1314/2428)   
 DEBUG [7a033276] 	Resolving deltas:  55% (1336/2428)   
 DEBUG [7a033276] 	Resolving deltas:  56% (1360/2428)   
 DEBUG [7a033276] 	Resolving deltas:  57% (1384/2428)   Resolving deltas:  58% (1409/2428)   
 DEBUG [7a033276] 	Resolving deltas:  59% (1433/2428)   Resolving deltas:  60% (1457/2428)   Resolving deltas:  61% (1483/2428)   
 DEBUG [7a033276] 	Resolving deltas:  62% (1508/2428)   
 DEBUG [7a033276] 	Resolving deltas:  63% (1534/2428)   
 DEBUG [7a033276] 	Resolving deltas:  64% (1560/2428)   
 DEBUG [7a033276] 	Resolving deltas:  65% (1579/2428)   
 DEBUG [7a033276] 	Resolving deltas:  66% (1608/2428)   
 DEBUG [7a033276] 	Resolving deltas:  67% (1627/2428)   
 DEBUG [7a033276] 	Resolving deltas:  68% (1652/2428)   
 DEBUG [7a033276] 	Resolving deltas:  69% (1677/2428)   
 DEBUG [7a033276] 	Resolving deltas:  70% (1700/2428)   
 DEBUG [7a033276] 	Resolving deltas:  71% (1724/2428)   
 DEBUG [7a033276] 	Resolving deltas:  72% (1753/2428)   
 DEBUG [7a033276] 	Resolving deltas:  73% (1773/2428)   
 DEBUG [7a033276] 	Resolving deltas:  74% (1797/2428)   
 DEBUG [7a033276] 	Resolving deltas:  75% (1821/2428)   
 DEBUG [7a033276] 	Resolving deltas:  76% (1853/2428)   
 DEBUG [7a033276] 	Resolving deltas:  77% (1870/2428)   
 DEBUG [7a033276] 	Resolving deltas:  78% (1899/2428)   
 DEBUG [7a033276] 	Resolving deltas:  79% (1922/2428)   
 DEBUG [7a033276] 	Resolving deltas:  80% (1943/2428)   
 DEBUG [7a033276] 	Resolving deltas:  81% (1967/2428)   
 DEBUG [7a033276] 	Resolving deltas:  82% (1992/2428)   
 DEBUG [7a033276] 	Resolving deltas:  83% (2016/2428)   
 DEBUG [7a033276] 	Resolving deltas:  84% (2040/2428)   
 DEBUG [7a033276] 	Resolving deltas:  85% (2067/2428)   
 DEBUG [7a033276] 	Resolving deltas:  86% (2089/2428)   
 DEBUG [7a033276] 	Resolving deltas:  87% (2113/2428)   
 DEBUG [7a033276] 	Resolving deltas:  88% (2137/2428)   
 DEBUG [7a033276] 	Resolving deltas:  89% (2162/2428)   
 DEBUG [7a033276] 	Resolving deltas:  90% (2194/2428)   
 DEBUG [7a033276] 	Resolving deltas:  91% (2210/2428)   
 DEBUG [7a033276] 	Resolving deltas:  92% (2235/2428)   
 DEBUG [7a033276] 	Resolving deltas:  93% (2259/2428)   
 DEBUG [7a033276] 	Resolving deltas:  94% (2286/2428)   
 DEBUG [7a033276] 	Resolving deltas:  95% (2310/2428)   
 DEBUG [7a033276] 	Resolving deltas:  96% (2331/2428)   
 DEBUG [7a033276] 	Resolving deltas:  97% (2361/2428)   
 DEBUG [7a033276] 	Resolving deltas:  98% (2399/2428)   
 DEBUG [7a033276] 	Resolving deltas:  99% (2405/2428)   
 DEBUG [7a033276] 	Resolving deltas: 100% (2428/2428)   Resolving deltas: 100% (2428/2428), done.
  INFO [7a033276] Finished in 2.791 seconds with exit status 0 (successful).
 DEBUG [2784fd08] Running if test ! -d /home1/pirranco/webs/gestionam.ehhh.es/repo; then echo "Directory does not exist '/home1/pirranco/webs/gestionam.ehhh.es/repo'" 1>&2; false; fi as pirranco@pirranco.com
 DEBUG [2784fd08] Command: if test ! -d /home1/pirranco/webs/gestionam.ehhh.es/repo; then echo "Directory does not exist '/home1/pirranco/webs/gestionam.ehhh.es/repo'" 1>&2; false; fi
 DEBUG [2784fd08] Finished in 0.631 seconds with exit status 0 (successful).
  INFO [3001996d] Running /usr/bin/env git remote set-url origin https://leroj7:chickinm7@bitbucket.org/leroj7/gestionam.git as pirranco@pirranco.com
 DEBUG [3001996d] Command: cd /home1/pirranco/webs/gestionam.ehhh.es/repo && ( export GIT_ASKPASS="/bin/echo" GIT_SSH="/home1/pirranco/tmp/git-ssh-e41638a32d42bca90b73.sh" ; /usr/bin/env git remote set-url origin https://leroj7:chickinm7@bitbucket.org/leroj7/gestionam.git )
  INFO [3001996d] Finished in 0.681 seconds with exit status 0 (successful).
  INFO [01694b2c] Running /usr/bin/env git remote update --prune as pirranco@pirranco.com
 DEBUG [01694b2c] Command: cd /home1/pirranco/webs/gestionam.ehhh.es/repo && ( export GIT_ASKPASS="/bin/echo" GIT_SSH="/home1/pirranco/tmp/git-ssh-e41638a32d42bca90b73.sh" ; /usr/bin/env git remote update --prune )
 DEBUG [01694b2c] 	Fetching origin
  INFO [01694b2c] Finished in 2.193 seconds with exit status 0 (successful).
 DEBUG [bfeaa637] Running if test ! -d /home1/pirranco/webs/gestionam.ehhh.es/repo; then echo "Directory does not exist '/home1/pirranco/webs/gestionam.ehhh.es/repo'" 1>&2; false; fi as pirranco@pirranco.com
 DEBUG [bfeaa637] Command: if test ! -d /home1/pirranco/webs/gestionam.ehhh.es/repo; then echo "Directory does not exist '/home1/pirranco/webs/gestionam.ehhh.es/repo'" 1>&2; false; fi
 DEBUG [bfeaa637] Finished in 0.603 seconds with exit status 0 (successful).
  INFO [6a13e153] Running /usr/bin/env mkdir -p /home1/pirranco/webs/gestionam.ehhh.es/releases/20211109220855 as pirranco@pirranco.com
 DEBUG [6a13e153] Command: cd /home1/pirranco/webs/gestionam.ehhh.es/repo && ( export GIT_ASKPASS="/bin/echo" GIT_SSH="/home1/pirranco/tmp/git-ssh-e41638a32d42bca90b73.sh" ; /usr/bin/env mkdir -p /home1/pirranco/webs/gestionam.ehhh.es/releases/20211109220855 )
  INFO [6a13e153] Finished in 0.605 seconds with exit status 0 (successful).
  INFO [686919f4] Running /usr/bin/env git archive master | /usr/bin/env tar -x -f - -C /home1/pirranco/webs/gestionam.ehhh.es/releases/20211109220855 as pirranco@pirranco.com
 DEBUG [686919f4] Command: cd /home1/pirranco/webs/gestionam.ehhh.es/repo && ( export GIT_ASKPASS="/bin/echo" GIT_SSH="/home1/pirranco/tmp/git-ssh-e41638a32d42bca90b73.sh" ; /usr/bin/env git archive master | /usr/bin/env tar -x -f - -C /home1/pirranco/webs/gestionam.ehhh.es/releases/20211109220855 )
  INFO [686919f4] Finished in 1.973 seconds with exit status 0 (successful).
 DEBUG [cf1cf6c7] Running if test ! -d /home1/pirranco/webs/gestionam.ehhh.es/repo; then echo "Directory does not exist '/home1/pirranco/webs/gestionam.ehhh.es/repo'" 1>&2; false; fi as pirranco@pirranco.com
 DEBUG [cf1cf6c7] Command: if test ! -d /home1/pirranco/webs/gestionam.ehhh.es/repo; then echo "Directory does not exist '/home1/pirranco/webs/gestionam.ehhh.es/repo'" 1>&2; false; fi
 DEBUG [cf1cf6c7] Finished in 0.584 seconds with exit status 0 (successful).
 DEBUG [2e235a22] Running /usr/bin/env git rev-list --max-count=1 master as pirranco@pirranco.com
 DEBUG [2e235a22] Command: cd /home1/pirranco/webs/gestionam.ehhh.es/repo && ( export GIT_ASKPASS="/bin/echo" GIT_SSH="/home1/pirranco/tmp/git-ssh-e41638a32d42bca90b73.sh" ; /usr/bin/env git rev-list --max-count=1 master )
 DEBUG [2e235a22] 	9a046dc3d92e592d71ac3fe9ec136db2fb95e4bf
 DEBUG [2e235a22] Finished in 0.621 seconds with exit status 0 (successful).
 DEBUG [da45e0d3] Running if test ! -d /home1/pirranco/webs/gestionam.ehhh.es/releases/20211109220855; then echo "Directory does not exist '/home1/pirranco/webs/gestionam.ehhh.es/releases/20211109220855'" 1>&2; false; fi as pirranco@pirranco.com
 DEBUG [da45e0d3] Command: if test ! -d /home1/pirranco/webs/gestionam.ehhh.es/releases/20211109220855; then echo "Directory does not exist '/home1/pirranco/webs/gestionam.ehhh.es/releases/20211109220855'" 1>&2; false; fi
 DEBUG [da45e0d3] Finished in 0.603 seconds with exit status 0 (successful).
  INFO [a8be79d8] Running /usr/bin/env echo "9a046dc3d92e592d71ac3fe9ec136db2fb95e4bf" > REVISION as pirranco@pirranco.com
 DEBUG [a8be79d8] Command: cd /home1/pirranco/webs/gestionam.ehhh.es/releases/20211109220855 && /usr/bin/env echo "9a046dc3d92e592d71ac3fe9ec136db2fb95e4bf" > REVISION
  INFO [a8be79d8] Finished in 0.637 seconds with exit status 0 (successful).
  INFO [1485bc35] Running cd /home1/pirranco/webs/gestionam.ehhh.es/releases/20211109220855 && /opt/cpanel/composer/bin/composer install as pirranco@pirranco.com
 DEBUG [1485bc35] Command: cd /home1/pirranco/webs/gestionam.ehhh.es/releases/20211109220855 && /opt/cpanel/composer/bin/composer install
 DEBUG [1485bc35] 	[32mInstalling dependencies from lock file (including require-dev)[39m
 DEBUG [1485bc35] 	[32mVerifying lock file contents can be installed on current platform.[39m
 DEBUG [1485bc35] 	[32mPackage operations: 106 installs, 0 updates, 0 removals[39m
 DEBUG [1485bc35] 	  - Downloading [32mdoctrine/inflector[39m ([33m2.0.3[39m)
 DEBUG [1485bc35] 	  - Downloading [32msymfony/polyfill-ctype[39m ([33mv1.23.0[39m)
 DEBUG [1485bc35] 	  - Downloading [32mdragonmantank/cron-expression[39m ([33mv3.1.0[39m)
 DEBUG [1485bc35] 	  - Downloading [32msymfony/polyfill-php80[39m ([33mv1.23.0[39m)
 DEBUG [1485bc35] 	  - Downloading [32msymfony/polyfill-mbstring[39m ([33mv1.23.0[39m)
 DEBUG [1485bc35] 	  - Downloading [32msymfony/var-dumper[39m ([33mv5.3.3[39m)
 DEBUG [1485bc35] 	  - Downloading [32msymfony/polyfill-intl-normalizer[39m ([33mv1.23.0[39m)
 DEBUG [1485bc35] 	  - Downloading [32msymfony/polyfill-intl-grapheme[39m ([33mv1.23.0[39m)
 DEBUG [1485bc35] 	  - Downloading [32msymfony/string[39m ([33mv5.3.3[39m)
 DEBUG [1485bc35] 	  - Downloading [32msymfony/polyfill-php73[39m ([33mv1.23.0[39m)
 DEBUG [1485bc35] 	  - Downloading [32msymfony/console[39m ([33mv5.3.2[39m)
 DEBUG [1485bc35] 	  - Downloading [32mpsr/log[39m ([33m1.1.4[39m)
 DEBUG [1485bc35] 	  - Downloading [32mmonolog/monolog[39m ([33m2.3.1[39m)
 DEBUG [1485bc35] 	  - Downloading [32mvoku/portable-ascii[39m ([33m1.5.6[39m)
 DEBUG [1485bc35] 	  - Downloading [32mphpoption/phpoption[39m ([33m1.7.5[39m)
 DEBUG [1485bc35] 	  - Downloading [32mgraham-campbell/result-type[39m ([33mv1.0.1[39m)
 DEBUG [1485bc35] 	  - Downloading [32mvlucas/phpdotenv[39m ([33mv5.3.0[39m)
 DEBUG [1485bc35] 	  - Downloading [32msymfony/css-selector[39m ([33mv5.3.0[39m)
 DEBUG [1485bc35] 	  - Downloading [32mtijsverkoyen/css-to-inline-styles[39m ([33m2.2.3[39m)
 DEBUG [1485bc35] 	  - Downloading [32msymfony/routing[39m ([33mv5.3.0[39m)
 DEBUG [1485bc35] 	  - Downloading [32msymfony/process[39m ([33mv5.3.2[39m)
 DEBUG [1485bc35] 	  - Downloading [32msymfony/polyfill-php72[39m ([33mv1.23.0[39m)
 DEBUG [1485bc35] 	  - Downloading [32msymfony/polyfill-intl-idn[39m ([33mv1.23.0[39m)
 DEBUG [1485bc35] 	  - Downloading [32msymfony/mime[39m ([33mv5.3.2[39m)
 DEBUG [1485bc35] 	  - Downloading [32msymfony/http-foundation[39m ([33mv5.3.3[39m)
 DEBUG [1485bc35] 	  - Downloading [32msymfony/http-client-contracts[39m ([33mv2.4.0[39m)
 DEBUG [1485bc35] 	  - Downloading [32msymfony/event-dispatcher[39m ([33mv5.3.0[39m)
 DEBUG [1485bc35] 	  - Downloading [32msymfony/error-handler[39m ([33mv5.3.3[39m)
 DEBUG [1485bc35] 	  - Downloading [32msymfony/http-kernel[39m ([33mv5.3.3[39m)
 DEBUG [1485bc35] 	  - Downloading [32msymfony/finder[39m ([33mv5.3.0[39m)
 DEBUG [1485bc35] 	  - Downloading [32msymfony/polyfill-iconv[39m ([33mv1.23.0[39m)
 DEBUG [1485bc35] 	  - Downloading [32megulias/email-validator[39m ([33m2.1.25[39m)
 DEBUG [1485bc35] 	  - Downloading [32mramsey/collection[39m ([33m1.1.3[39m)
 DEBUG [1485bc35] 	  - Downloading [32mbrick/math[39m ([33m0.9.2[39m)
 DEBUG [1485bc35] 	  - Downloading [32mramsey/uuid[39m ([33m4.1.1[39m)
 DEBUG [1485bc35] 	  - Downloading [32mpsr/simple-cache[39m ([33m1.0.1[39m)
 DEBUG [1485bc35] 	  - Downloading [32msymfony/translation-contracts[39m ([33mv2.4.0[39m)
 DEBUG [1485bc35] 	  - Downloading [32msymfony/translation[39m ([33mv5.3.3[39m)
 DEBUG [1485bc35] 	  - Downloading [32mnesbot/carbon[39m ([33m2.50.0[39m)
 DEBUG [1485bc35] 	  - Downloading [32mleague/mime-type-detection[39m ([33m1.7.0[39m)
 DEBUG [1485bc35] 	  - Downloading [32mleague/flysystem[39m ([33m1.1.4[39m)
 DEBUG [1485bc35] 	  - Downloading [32mleague/commonmark[39m ([33m1.6.5[39m)
 DEBUG [1485bc35] 	  - Downloading [32mlaravel/framework[39m ([33mv8.50.0[39m)
 DEBUG [1485bc35] 	  - Downloading [32mfacade/ignition-contracts[39m ([33m1.0.2[39m)
 DEBUG [1485bc35] 	  - Downloading [32mfacade/flare-client-php[39m ([33m1.8.1[39m)
 DEBUG [1485bc35] 	  - Downloading [32mfacade/ignition[39m ([33m2.11.0[39m)
 DEBUG [1485bc35] 	  - Downloading [32mfakerphp/faker[39m ([33mv1.15.0[39m)
 DEBUG [1485bc35] 	  - Downloading [32mfideloper/proxy[39m ([33m4.4.1[39m)
 DEBUG [1485bc35] 	  - Downloading [32masm89/stack-cors[39m ([33mv2.0.3[39m)
 DEBUG [1485bc35] 	  - Downloading [32mfruitcake/laravel-cors[39m ([33mv2.0.4[39m)
 DEBUG [1485bc35] 	  - Downloading [32mpsr/http-client[39m ([33m1.0.1[39m)
 DEBUG [1485bc35] 	  - Downloading [32mpsr/http-factory[39m ([33m1.0.1[39m)
 DEBUG [1485bc35] 	  - Downloading [32mguzzlehttp/psr7[39m ([33m2.0.0[39m)
 DEBUG [1485bc35] 	  - Downloading [32mguzzlehttp/guzzle[39m ([33m7.3.0[39m)
 DEBUG [1485bc35] 	  - Downloading [32mlaravel/breeze[39m ([33mv1.3.1[39m)
 DEBUG [1485bc35] 	  - Downloading [32mlaravel/sail[39m ([33mv1.8.6[39m)
 DEBUG [1485bc35] 	  - Downloading [32mnikic/php-parser[39m ([33mv4.11.0[39m)
 DEBUG [1485bc35] 	  - Downloading [32mpsy/psysh[39m ([33mv0.10.8[39m)
 DEBUG [1485bc35] 	  - Downloading [32mlaravel/tinker[39m ([33mv2.6.1[39m)
 DEBUG [1485bc35] 	  - Downloading [32mhamcrest/hamcrest-php[39m ([33mv2.0.1[39m)
 DEBUG [1485bc35] 	  - Downloading [32mmockery/mockery[39m ([33m1.4.3[39m)
 DEBUG [1485bc35] 	  - Downloading [32mfilp/whoops[39m ([33m2.14.0[39m)
 DEBUG [1485bc35] 	  - Downloading [32mnunomaduro/collision[39m ([33mv5.5.0[39m)
 DEBUG [1485bc35] 	  - Downloading [32msebastian/version[39m ([33m3.0.2[39m)
 DEBUG [1485bc35] 	  - Downloading [32msebastian/type[39m ([33m2.3.4[39m)
 DEBUG [1485bc35] 	  - Downloading [32msebastian/resource-operations[39m ([33m3.0.3[39m)
 DEBUG [1485bc35] 	  - Downloading [32msebastian/recursion-context[39m ([33m4.0.4[39m)
 DEBUG [1485bc35] 	  - Downloading [32msebastian/object-reflector[39m ([33m2.0.4[39m)
 DEBUG [1485bc35] 	  - Downloading [32msebastian/object-enumerator[39m ([33m4.0.4[39m)
 DEBUG [1485bc35] 	  - Downloading [32msebastian/global-state[39m ([33m5.0.3[39m)
 DEBUG [1485bc35] 	  - Downloading [32msebastian/exporter[39m ([33m4.0.3[39m)
 DEBUG [1485bc35] 	  - Downloading [32msebastian/environment[39m ([33m5.1.3[39m)
 DEBUG [1485bc35] 	  - Downloading [32msebastian/diff[39m ([33m4.0.4[39m)
 DEBUG [1485bc35] 	  - Downloading [32msebastian/comparator[39m ([33m4.0.6[39m)
 DEBUG [1485bc35] 	  - Downloading [32msebastian/code-unit[39m ([33m1.0.8[39m)
 DEBUG [1485bc35] 	  - Downloading [32msebastian/cli-parser[39m ([33m1.0.1[39m)
 DEBUG [1485bc35] 	  - Downloading [32mphpunit/php-timer[39m ([33m5.0.3[39m)
 DEBUG [1485bc35] 	  - Downloading [32mphpunit/php-text-template[39m ([33m2.0.4[39m)
 DEBUG [1485bc35] 	  - Downloading [32mphpunit/php-invoker[39m ([33m3.1.1[39m)
 DEBUG [1485bc35] 	  - Downloading [32mphpunit/php-file-iterator[39m ([33m3.0.5[39m)
 DEBUG [1485bc35] 	  - Downloading [32msebastian/lines-of-code[39m ([33m1.0.3[39m)
 DEBUG [1485bc35] 	  - Downloading [32msebastian/complexity[39m ([33m2.0.2[39m)
 DEBUG [1485bc35] 	  - Downloading [32msebastian/code-unit-reverse-lookup[39m ([33m2.0.3[39m)
 DEBUG [1485bc35] 	  - Downloading [32mphpunit/php-code-coverage[39m ([33m9.2.6[39m)
 DEBUG [1485bc35] 	  - Downloading [32mphpunit/phpunit[39m ([33m9.5.6[39m)
 DEBUG [1485bc35] 	  0/85 [>---------------------------]   0%
 DEBUG [1485bc35] 	[2K  1/85 [>---------------------------]   1%
 DEBUG [1485bc35] 	[2K  2/85 [>---------------------------]   2%
 DEBUG [1485bc35] 	[2K  3/85 [>---------------------------]   3%
 DEBUG [1485bc35] 	[2K  4/85 [=>--------------------------]   4%
 DEBUG [1485bc35] 	[2K  5/85 [=>--------------------------]   5%
 DEBUG [1485bc35] 	[2K  6/85 [=>--------------------------]   7%
 DEBUG [1485bc35] 	[2K  7/85 [==>-------------------------]   8%
 DEBUG [1485bc35] 	[2K  9/85 [==>-------------------------]  10%
 DEBUG [1485bc35] 	[2K 10/85 [===>------------------------]  11%
 DEBUG [1485bc35] 	[2K 11/85 [===>------------------------]  12%
 DEBUG [1485bc35] 	[2K 12/85 [===>------------------------]  14%
 DEBUG [1485bc35] 	[2K
 DEBUG [1485bc35] 	 15/85 [====>-----------------------]  17%
 DEBUG [1485bc35] 	[2K 17/85 [=====>----------------------]  20%
 DEBUG [1485bc35] 	[2K 18/85 [=====>----------------------]  21%
 DEBUG [1485bc35] 	[2K 19/85 [======>---------------------]  22%
 DEBUG [1485bc35] 	[2K 20/85 [======>---------------------]  23%
 DEBUG [1485bc35] 	[2K 22/85 [=======>--------------------]  25%
 DEBUG [1485bc35] 	[2K 24/85 [=======>--------------------]  28%
 DEBUG [1485bc35] 	[2K 25/85 [========>-------------------]  29%
 DEBUG [1485bc35] 	[2K 26/85 [========>-------------------]  30%
 DEBUG [1485bc35] 	[2K 27/85 [========>-------------------]  31%
 DEBUG [1485bc35] 	[2K 28/85 [=========>------------------]  32%
 DEBUG [1485bc35] 	[2K 29/85 [=========>------------------]  34%
 DEBUG [1485bc35] 	[2K 30/85 [=========>------------------]  35%
 DEBUG [1485bc35] 	[2K 32/85 [==========>-----------------]  37%
 DEBUG [1485bc35] 	[2K 33/85 [==========>-----------------]  38%
 DEBUG [1485bc35] 	[2K 34/85 [===========>----------------]  40%
 DEBUG [1485bc35] 	[2K 36/85 [===========>----------------]  42%
 DEBUG [1485bc35] 	[2K 37/85 [============>---------------]  43%
 DEBUG [1485bc35] 	[2K 38/85 [============>---------------]  44%
 DEBUG [1485bc35] 	[2K 40/85 [=============>--------------]  47%
 DEBUG [1485bc35] 	[2K 41/85 [=============>--------------]  48%
 DEBUG [1485bc35] 	[2K 42/85 [=============>--------------]  49%
 DEBUG [1485bc35] 	[2K 43/85 [==============>-------------]  50%
 DEBUG [1485bc35] 	[2K 44/85 [==============>-------------]  51%
 DEBUG [1485bc35] 	[2K 48/85 [===============>------------]  56%
 DEBUG [1485bc35] 	[2K 49/85 [================>-----------]  57%
 DEBUG [1485bc35] 	[2K 53/85 [=================>----------]  62%
 DEBUG [1485bc35] 	[2K 54/85 [=================>----------]  63%
 DEBUG [1485bc35] 	[2K 55/85 [==================>---------]  64%
 DEBUG [1485bc35] 	[2K 56/85 [==================>---------]  65%
 DEBUG [1485bc35] 	[2K 57/85 [==================>---------]  67%
 DEBUG [1485bc35] 	[2K 59/85 [===================>--------]  69%
 DEBUG [1485bc35] 	[2K 60/85 [===================>--------]  70%
 DEBUG [1485bc35] 	[2K
 DEBUG [1485bc35] 	 61/85 [====================>-------]  71%
 DEBUG [1485bc35] 	[2K 62/85 [====================>-------]  72%
 DEBUG [1485bc35] 	[2K 63/85 [====================>-------]  74%
 DEBUG [1485bc35] 	[2K 64/85 [=====================>------]  75%
 DEBUG [1485bc35] 	[2K 65/85 [=====================>------]  76%
 DEBUG [1485bc35] 	[2K
 DEBUG [1485bc35] 	 66/85 [=====================>------]  77%
 DEBUG [1485bc35] 	[2K 68/85 [======================>-----]  80%
 DEBUG [1485bc35] 	[2K
 DEBUG [1485bc35] 	 69/85 [======================>-----]  81%
 DEBUG [1485bc35] 	[2K 70/85 [=======================>----]  82%
 DEBUG [1485bc35] 	[2K 72/85 [=======================>----]  84%
 DEBUG [1485bc35] 	[2K 73/85 [========================>---]  85%
 DEBUG [1485bc35] 	[2K 74/85 [========================>---]  87%
 DEBUG [1485bc35] 	[2K 75/85 [========================>---]  88%
 DEBUG [1485bc35] 	[2K 76/85 [=========================>--]  89%
 DEBUG [1485bc35] 	[2K 77/85 [=========================>--]  90%
 DEBUG [1485bc35] 	[2K 79/85 [==========================>-]  92%
 DEBUG [1485bc35] 	[2K 80/85 [==========================>-]  94%
 DEBUG [1485bc35] 	[2K 81/85 [==========================>-]  95%
 DEBUG [1485bc35] 	[2K 83/85 [===========================>]  97%
 DEBUG [1485bc35] 	[2K 84/85 [===========================>]  98%
 DEBUG [1485bc35] 	[2K 85/85 [============================] 100%[2K
 DEBUG [1485bc35] 	  - Installing [32mdoctrine/inflector[39m ([33m2.0.3[39m): Extracting archive
 DEBUG [1485bc35] 	  - Installing [32mdoctrine/lexer[39m ([33m1.2.1[39m): Extracting archive
 DEBUG [1485bc35] 	  - Installing [32msymfony/polyfill-ctype[39m ([33mv1.23.0[39m): Extracting archive
 DEBUG [1485bc35] 	  - Installing [32mwebmozart/assert[39m ([33m1.10.0[39m): Extracting archive
 DEBUG [1485bc35] 	  - Installing [32mdragonmantank/cron-expression[39m ([33mv3.1.0[39m): Extracting archive
 DEBUG [1485bc35] 	  - Installing [32msymfony/polyfill-php80[39m ([33mv1.23.0[39m): Extracting archive
 DEBUG [1485bc35] 	  - Installing [32msymfony/polyfill-mbstring[39m ([33mv1.23.0[39m): Extracting archive
 DEBUG [1485bc35] 	  - Installing [32msymfony/var-dumper[39m ([33mv5.3.3[39m): Extracting archive
 DEBUG [1485bc35] 	  - Installing [32msymfony/polyfill-intl-normalizer[39m ([33mv1.23.0[39m): Extracting archive
 DEBUG [1485bc35] 	  - Installing [32msymfony/polyfill-intl-grapheme[39m ([33mv1.23.0[39m): Extracting archive
 DEBUG [1485bc35] 	  - Installing [32msymfony/string[39m ([33mv5.3.3[39m): Extracting archive
 DEBUG [1485bc35] 	  - Installing [32mpsr/container[39m ([33m1.1.1[39m): Extracting archive
 DEBUG [1485bc35] 	  - Installing [32msymfony/service-contracts[39m ([33mv2.4.0[39m): Extracting archive
 DEBUG [1485bc35] 	  - Installing [32msymfony/polyfill-php73[39m ([33mv1.23.0[39m): Extracting archive
 DEBUG [1485bc35] 	  - Installing [32msymfony/deprecation-contracts[39m ([33mv2.4.0[39m): Extracting archive
 DEBUG [1485bc35] 	  - Installing [32msymfony/console[39m ([33mv5.3.2[39m): Extracting archive
 DEBUG [1485bc35] 	  - Installing [32mpsr/log[39m ([33m1.1.4[39m): Extracting archive
 DEBUG [1485bc35] 	  - Installing [32mmonolog/monolog[39m ([33m2.3.1[39m): Extracting archive
 DEBUG [1485bc35] 	  - Installing [32mvoku/portable-ascii[39m ([33m1.5.6[39m): Extracting archive
 DEBUG [1485bc35] 	  - Installing [32mphpoption/phpoption[39m ([33m1.7.5[39m): Extracting archive
 DEBUG [1485bc35] 	  - Installing [32mgraham-campbell/result-type[39m ([33mv1.0.1[39m): Extracting archive
 DEBUG [1485bc35] 	  - Installing [32mvlucas/phpdotenv[39m ([33mv5.3.0[39m): Extracting archive
 DEBUG [1485bc35] 	  - Installing [32msymfony/css-selector[39m ([33mv5.3.0[39m): Extracting archive
 DEBUG [1485bc35] 	  - Installing [32mtijsverkoyen/css-to-inline-styles[39m ([33m2.2.3[39m): Extracting archive
 DEBUG [1485bc35] 	  - Installing [32msymfony/routing[39m ([33mv5.3.0[39m): Extracting archive
 DEBUG [1485bc35] 	  - Installing [32msymfony/process[39m ([33mv5.3.2[39m): Extracting archive
 DEBUG [1485bc35] 	  - Installing [32msymfony/polyfill-php72[39m ([33mv1.23.0[39m): Extracting archive
 DEBUG [1485bc35] 	  - Installing [32msymfony/polyfill-intl-idn[39m ([33mv1.23.0[39m): Extracting archive
 DEBUG [1485bc35] 	  - Installing [32msymfony/mime[39m ([33mv5.3.2[39m): Extracting archive
 DEBUG [1485bc35] 	  - Installing [32msymfony/http-foundation[39m ([33mv5.3.3[39m): Extracting archive
 DEBUG [1485bc35] 	  - Installing [32msymfony/http-client-contracts[39m ([33mv2.4.0[39m): Extracting archive
 DEBUG [1485bc35] 	  - Installing [32mpsr/event-dispatcher[39m ([33m1.0.0[39m): Extracting archive
 DEBUG [1485bc35] 	  - Installing [32msymfony/event-dispatcher-contracts[39m ([33mv2.4.0[39m): Extracting archive
 DEBUG [1485bc35] 	  - Installing [32msymfony/event-dispatcher[39m ([33mv5.3.0[39m): Extracting archive
 DEBUG [1485bc35] 	  - Installing [32msymfony/error-handler[39m ([33mv5.3.3[39m): Extracting archive
 DEBUG [1485bc35] 	  - Installing [32msymfony/http-kernel[39m ([33mv5.3.3[39m): Extracting archive
 DEBUG [1485bc35] 	  - Installing [32msymfony/finder[39m ([33mv5.3.0[39m): Extracting archive
 DEBUG [1485bc35] 	  - Installing [32msymfony/polyfill-iconv[39m ([33mv1.23.0[39m): Extracting archive
 DEBUG [1485bc35] 	  - Installing [32megulias/email-validator[39m ([33m2.1.25[39m): Extracting archive
 DEBUG [1485bc35] 	  - Installing [32mswiftmailer/swiftmailer[39m ([33mv6.2.7[39m): Extracting archive
 DEBUG [1485bc35] 	  - Installing [32mramsey/collection[39m ([33m1.1.3[39m): Extracting archive
 DEBUG [1485bc35] 	  - Installing [32mbrick/math[39m ([33m0.9.2[39m): Extracting archive
 DEBUG [1485bc35] 	  - Installing [32mramsey/uuid[39m ([33m4.1.1[39m): Extracting archive
 DEBUG [1485bc35] 	  - Installing [32mpsr/simple-cache[39m ([33m1.0.1[39m): Extracting archive
 DEBUG [1485bc35] 	  - Installing [32mopis/closure[39m ([33m3.6.2[39m): Extracting archive
 DEBUG [1485bc35] 	  - Installing [32msymfony/translation-contracts[39m ([33mv2.4.0[39m): Extracting archive
 DEBUG [1485bc35] 	  - Installing [32msymfony/translation[39m ([33mv5.3.3[39m): Extracting archive
 DEBUG [1485bc35] 	  - Installing [32mnesbot/carbon[39m ([33m2.50.0[39m): Extracting archive
 DEBUG [1485bc35] 	  - Installing [32mleague/mime-type-detection[39m ([33m1.7.0[39m): Extracting archive
 DEBUG [1485bc35] 	  - Installing [32mleague/flysystem[39m ([33m1.1.4[39m): Extracting archive
 DEBUG [1485bc35] 	  - Installing [32mleague/commonmark[39m ([33m1.6.5[39m): Extracting archive
 DEBUG [1485bc35] 	  - Installing [32mlaravel/framework[39m ([33mv8.50.0[39m): Extracting archive
 DEBUG [1485bc35] 	  - Installing [32mfacade/ignition-contracts[39m ([33m1.0.2[39m): Extracting archive
 DEBUG [1485bc35] 	  - Installing [32mfacade/flare-client-php[39m ([33m1.8.1[39m): Extracting archive
 DEBUG [1485bc35] 	  - Installing [32mfacade/ignition[39m ([33m2.11.0[39m): Extracting archive
 DEBUG [1485bc35] 	  - Installing [32mfakerphp/faker[39m ([33mv1.15.0[39m): Extracting archive
 DEBUG [1485bc35] 	  - Installing [32mfideloper/proxy[39m ([33m4.4.1[39m): Extracting archive
 DEBUG [1485bc35] 	  - Installing [32masm89/stack-cors[39m ([33mv2.0.3[39m): Extracting archive
 DEBUG [1485bc35] 	  - Installing [32mfruitcake/laravel-cors[39m ([33mv2.0.4[39m): Extracting archive
 DEBUG [1485bc35] 	  - Installing [32mpsr/http-message[39m ([33m1.0.1[39m): Extracting archive
 DEBUG [1485bc35] 	  - Installing [32mpsr/http-client[39m ([33m1.0.1[39m): Extracting archive
 DEBUG [1485bc35] 	  - Installing [32mralouphie/getallheaders[39m ([33m3.0.3[39m): Extracting archive
 DEBUG [1485bc35] 	  - Installing [32mpsr/http-factory[39m ([33m1.0.1[39m): Extracting archive
 DEBUG [1485bc35] 	  - Installing [32mguzzlehttp/psr7[39m ([33m2.0.0[39m): Extracting archive
 DEBUG [1485bc35] 	  - Installing [32mguzzlehttp/promises[39m ([33m1.4.1[39m): Extracting archive
 DEBUG [1485bc35] 	  - Installing [32mguzzlehttp/guzzle[39m ([33m7.3.0[39m): Extracting archive
 DEBUG [1485bc35] 	  - Installing [32mlaravel/breeze[39m ([33mv1.3.1[39m): Extracting archive
 DEBUG [1485bc35] 	  - Installing [32mlaravel/sail[39m ([33mv1.8.6[39m): Extracting archive
 DEBUG [1485bc35] 	  - Installing [32mnikic/php-parser[39m ([33mv4.11.0[39m): Extracting archive
 DEBUG [1485bc35] 	  - Installing [32mpsy/psysh[39m ([33mv0.10.8[39m): Extracting archive
 DEBUG [1485bc35] 	  - Installing [32mlaravel/tinker[39m ([33mv2.6.1[39m): Extracting archive
 DEBUG [1485bc35] 	  - Installing [32mhamcrest/hamcrest-php[39m ([33mv2.0.1[39m): Extracting archive
 DEBUG [1485bc35] 	  - Installing [32mmockery/mockery[39m ([33m1.4.3[39m): Extracting archive
 DEBUG [1485bc35] 	  - Installing [32mfilp/whoops[39m ([33m2.14.0[39m): Extracting archive
 DEBUG [1485bc35] 	  - Installing [32mnunomaduro/collision[39m ([33mv5.5.0[39m): Extracting archive
 DEBUG [1485bc35] 	  - Installing [32mphpdocumentor/reflection-common[39m ([33m2.2.0[39m): Extracting archive
 DEBUG [1485bc35] 	  - Installing [32mphpdocumentor/type-resolver[39m ([33m1.4.0[39m): Extracting archive
 DEBUG [1485bc35] 	  - Installing [32mphpdocumentor/reflection-docblock[39m ([33m5.2.2[39m): Extracting archive
 DEBUG [1485bc35] 	  - Installing [32msebastian/version[39m ([33m3.0.2[39m): Extracting archive
 DEBUG [1485bc35] 	  - Installing [32msebastian/type[39m ([33m2.3.4[39m): Extracting archive
 DEBUG [1485bc35] 	  - Installing [32msebastian/resource-operations[39m ([33m3.0.3[39m): Extracting archive
 DEBUG [1485bc35] 	  - Installing [32msebastian/recursion-context[39m ([33m4.0.4[39m): Extracting archive
 DEBUG [1485bc35] 	  - Installing [32msebastian/object-reflector[39m ([33m2.0.4[39m): Extracting archive
 DEBUG [1485bc35] 	  - Installing [32msebastian/object-enumerator[39m ([33m4.0.4[39m): Extracting archive
 DEBUG [1485bc35] 	  - Installing [32msebastian/global-state[39m ([33m5.0.3[39m): Extracting archive
 DEBUG [1485bc35] 	  - Installing [32msebastian/exporter[39m ([33m4.0.3[39m): Extracting archive
 DEBUG [1485bc35] 	  - Installing [32msebastian/environment[39m ([33m5.1.3[39m): Extracting archive
 DEBUG [1485bc35] 	  - Installing [32msebastian/diff[39m ([33m4.0.4[39m): Extracting archive
 DEBUG [1485bc35] 	  - Installing [32msebastian/comparator[39m ([33m4.0.6[39m): Extracting archive
 DEBUG [1485bc35] 	  - Installing [32msebastian/code-unit[39m ([33m1.0.8[39m): Extracting archive
 DEBUG [1485bc35] 	  - Installing [32msebastian/cli-parser[39m ([33m1.0.1[39m): Extracting archive
 DEBUG [1485bc35] 	  - Installing [32mphpunit/php-timer[39m ([33m5.0.3[39m): Extracting archive
 DEBUG [1485bc35] 	  - Installing [32mphpunit/php-text-template[39m ([33m2.0.4[39m): Extracting archive
 DEBUG [1485bc35] 	  - Installing [32mphpunit/php-invoker[39m ([33m3.1.1[39m): Extracting archive
 DEBUG [1485bc35] 	  - Installing [32mphpunit/php-file-iterator[39m ([33m3.0.5[39m): Extracting archive
 DEBUG [1485bc35] 	  - Installing [32mtheseer/tokenizer[39m ([33m1.2.0[39m): Extracting archive
 DEBUG [1485bc35] 	  - Installing [32msebastian/lines-of-code[39m ([33m1.0.3[39m): Extracting archive
 DEBUG [1485bc35] 	  - Installing [32msebastian/complexity[39m ([33m2.0.2[39m): Extracting archive
 DEBUG [1485bc35] 	  - Installing [32msebastian/code-unit-reverse-lookup[39m ([33m2.0.3[39m): Extracting archive
 DEBUG [1485bc35] 	  - Installing [32mphpunit/php-code-coverage[39m ([33m9.2.6[39m): Extracting archive
 DEBUG [1485bc35] 	  - Installing [32mdoctrine/instantiator[39m ([33m1.4.0[39m): Extracting archive
 DEBUG [1485bc35] 	  - Installing [32mphpspec/prophecy[39m ([33m1.13.0[39m): Extracting archive
 DEBUG [1485bc35] 	  - Installing [32mphar-io/version[39m ([33m3.1.0[39m): Extracting archive
 DEBUG [1485bc35] 	  - Installing [32mphar-io/manifest[39m ([33m2.0.1[39m): Extracting archive
 DEBUG [1485bc35] 	  - Installing [32mmyclabs/deep-copy[39m ([33m1.10.2[39m): Extracting archive
 DEBUG [1485bc35] 	  - Installing [32mphpunit/phpunit[39m ([33m9.5.6[39m): Extracting archive
 DEBUG [1485bc35] 	  0/96 [>---------------------------]   0%
 DEBUG [1485bc35] 	[2K
 DEBUG [1485bc35] 	 10/96 [==>-------------------------]  10%
 DEBUG [1485bc35] 	[2K 20/96 [=====>----------------------]  20%
 DEBUG [1485bc35] 	[2K
 DEBUG [1485bc35] 	 30/96 [========>-------------------]  31%
 DEBUG [1485bc35] 	[2K 40/96 [===========>----------------]  41%
 DEBUG [1485bc35] 	[2K 47/96 [=============>--------------]  48%
 DEBUG [1485bc35] 	[2K 55/96 [================>-----------]  57%
 DEBUG [1485bc35] 	[2K 65/96 [==================>---------]  67%
 DEBUG [1485bc35] 	[2K 75/96 [=====================>------]  78%
 DEBUG [1485bc35] 	[2K 85/96 [========================>---]  88%
 DEBUG [1485bc35] 	[2K 95/96 [===========================>]  98%
 DEBUG [1485bc35] 	[2K 96/96 [============================] 100%[2K
 DEBUG [1485bc35] 	[32mGenerating optimized autoload files[39m
 DEBUG [1485bc35] 	[30;43mClass App\View\Components\InvitadocompletoLayout located in ./app/View/Components/InvitadoCompletoLayout.php does not comply with psr-4 autoloading standard. Skipping.[39;49m
 DEBUG [1485bc35] 	> Illuminate\Foundation\ComposerScripts::postAutoloadDump
 DEBUG [1485bc35] 	> @php artisan package:discover --ansi
 DEBUG [1485bc35] 	Discovered Package: [32mfacade/ignition[39m
 DEBUG [1485bc35] 	Discovered Package: [32mfideloper/proxy[39m
 DEBUG [1485bc35] 	Discovered Package: [32mfruitcake/laravel-cors[39m
 DEBUG [1485bc35] 	Discovered Package: [32mlaravel/breeze[39m
 DEBUG [1485bc35] 	Discovered Package: [32mlaravel/sail[39m
 DEBUG [1485bc35] 	Discovered Package: [32mlaravel/tinker[39m
 DEBUG [1485bc35] 	Discovered Package: [32mnesbot/carbon[39m
 DEBUG [1485bc35] 	Discovered Package: [32mnunomaduro/collision[39m
 DEBUG [1485bc35] 	[32mPackage manifest generated successfully.[39m
 DEBUG [1485bc35] 	[32m74 packages you are using are looking for funding.[39m
[32mUse the `composer fund` command to find out more![39m
  INFO [1485bc35] Finished in 6.814 seconds with exit status 0 (successful).
  INFO [804aedc7] Running cd /home1/pirranco/webs/gestionam.ehhh.es/releases/20211109220855 && php artisan config:cache as pirranco@pirranco.com
 DEBUG [804aedc7] Command: cd /home1/pirranco/webs/gestionam.ehhh.es/releases/20211109220855 && php artisan config:cache
 DEBUG [804aedc7] 	[32mConfiguration cache cleared![39m
 DEBUG [804aedc7] 	[32mConfiguration cached successfully![39m
  INFO [804aedc7] Finished in 0.809 seconds with exit status 0 (successful).
  INFO [44d50cd7] Running cd /home1/pirranco/webs/gestionam.ehhh.es/releases/20211109220855 && php artisan route:cache as pirranco@pirranco.com
 DEBUG [44d50cd7] Command: cd /home1/pirranco/webs/gestionam.ehhh.es/releases/20211109220855 && php artisan route:cache
 DEBUG [44d50cd7] 	[32mRoute cache cleared![39m
 DEBUG [44d50cd7] 	[32mRoutes cached successfully![39m
  INFO [44d50cd7] Finished in 0.816 seconds with exit status 0 (successful).
  INFO [4f5255a9] Running cd /home1/pirranco/webs/gestionam.ehhh.es/releases/20211109220855 && php artisan view:cache as pirranco@pirranco.com
 DEBUG [4f5255a9] Command: cd /home1/pirranco/webs/gestionam.ehhh.es/releases/20211109220855 && php artisan view:cache
 DEBUG [4f5255a9] 	[32mCompiled views cleared![39m
 DEBUG [4f5255a9] 	
 DEBUG [4f5255a9] 	  [41;1m InvalidArgumentException [49;22m
 DEBUG [4f5255a9] 	
 DEBUG [4f5255a9] 	[39;1m  Unable to locate a class or view for component [invitadocompleto-layout].[39;22m
 DEBUG [4f5255a9] 	
 DEBUG [4f5255a9] 	  at [32mvendor/laravel/framework/src/Illuminate/View/Compilers/ComponentTagCompiler.php[39m:[32m275[39m
 DEBUG [4f5255a9] 	    [90m271[0m[90m▕ [0m[35;1m        if ([0m[39;1m$viewFactory[0m[35;1m->[0m[39;1mexists[0m[35;1m([0m[39;1m$view [0m[35;1m= [0m[39;1m$this[0m[35;1m->[0m[39;1mguessViewName[0m[35;1m([0m[39;1m$component[0m[35;1m))) {[0m
    [90m272[0m[90m▕ [0m[35;1m            return [0m[39;1m$view[0m[35;1m;[0m
    [90m273[0m[90m▕ [0m[35;1m        }[0m
    [90m274[0m[90m▕ [0m
[31;1m  ➜ [0m[3;1m275[0m[90m▕ [0m[35;1m        throw new [0m[39;1mInvalidArgumentException[0m[35;1m([0m
    [90m276[0m[90m▕ [0m[35;1m            [0m[37m"Unable to locate a class or view for component [[0m[35;1m{[0m[39;1m$component[0m[35;1m}[0m[37m]."[0m
    [90m277[0m[90m▕ [0m[37m        [0m[35;1m);[0m
    [90m278[0m[90m▕ [0m[35;1m    }[0m
    [90m279[0m[90m▕ [0m
 DEBUG [4f5255a9] 	
      [2m+2 vendor frames [22m
 DEBUG [4f5255a9] 	  [33m3   [39m[39;1m[internal][39;22m:[39;1m0[39;22m
 DEBUG [4f5255a9] 	  [37m    Illuminate\View\Compilers\ComponentTagCompiler::Illuminate\View\Compilers\{closure}(["[39m[37m<x-invitadocompleto-layout>[39m[37m", "invitadocompleto-layout", "", ""])[39m
 DEBUG [4f5255a9] 	
      [2m+7 vendor frames [22m
 DEBUG [4f5255a9] 	  [33m11  [39m[39;1m[internal][39;22m:[39;1m0[39;22m
 DEBUG [4f5255a9] 	  [37m    Illuminate\Foundation\Console\ViewCacheCommand::Illuminate\Foundation\Console\{closure}(Object(Symfony\Component\Finder\SplFileInfo), "/home1/pirranco/webs/gestionam.ehhh.es/releases/20211109220855/resources/views/auth/login.blade.php")[39m
